LOG_FILE.log
UVM_INFO sr_scoreboard.sv(151) @ 5: uvm_test_top.env_h.scoreboard_h [write_mon OUT ]  s=0  r=0 ||  q=x qbar=x
UVM_INFO sr_scoreboard.sv(87) @ 5: uvm_test_top.env_h.scoreboard_h [write_drv STIM]  s=1  r=0
UVM_INFO sr_scoreboard.sv(151) @ 10: uvm_test_top.env_h.scoreboard_h [write_mon OUT ]  s=1  r=0 ||  q=1 qbar=0
UVM_INFO sr_scoreboard.sv(87) @ 10: uvm_test_top.env_h.scoreboard_h [write_drv STIM]  s=1  r=0
UVM_INFO sr_scoreboard.sv(185) @ 10: uvm_test_top.env_h.scoreboard_h [
 [ PASS ]  s=1  r=0 ||  q=1 qbar=0
UVM_INFO sr_scoreboard.sv(151) @ 15: uvm_test_top.env_h.scoreboard_h [write_mon OUT ]  s=1  r=0 ||  q=1 qbar=0
UVM_INFO sr_scoreboard.sv(87) @ 15: uvm_test_top.env_h.scoreboard_h [write_drv STIM]  s=0  r=1
UVM_INFO sr_scoreboard.sv(185) @ 15: uvm_test_top.env_h.scoreboard_h [
 [ PASS ]  s=1  r=0 ||  q=1 qbar=0
UVM_INFO sr_scoreboard.sv(151) @ 20: uvm_test_top.env_h.scoreboard_h [write_mon OUT ]  s=0  r=1 ||  q=0 qbar=1
UVM_INFO sr_scoreboard.sv(87) @ 20: uvm_test_top.env_h.scoreboard_h [write_drv STIM]  s=0  r=1
UVM_INFO sr_scoreboard.sv(185) @ 20: uvm_test_top.env_h.scoreboard_h [
 [ PASS ]  s=0  r=1 ||  q=0 qbar=1
UVM_INFO sr_scoreboard.sv(151) @ 25: uvm_test_top.env_h.scoreboard_h [write_mon OUT ]  s=0  r=1 ||  q=0 qbar=1
UVM_INFO sr_scoreboard.sv(87) @ 25: uvm_test_top.env_h.scoreboard_h [write_drv STIM]  s=1  r=1
UVM_INFO sr_scoreboard.sv(185) @ 25: uvm_test_top.env_h.scoreboard_h [
 [ PASS ]  s=0  r=1 ||  q=0 qbar=1
UVM_INFO sr_scoreboard.sv(151) @ 30: uvm_test_top.env_h.scoreboard_h [write_mon OUT ]  s=1  r=1 ||  q=x qbar=x
UVM_INFO sr_scoreboard.sv(87) @ 30: uvm_test_top.env_h.scoreboard_h [write_drv STIM]  s=1  r=0
UVM_INFO sr_scoreboard.sv(185) @ 30: uvm_test_top.env_h.scoreboard_h [
 [ PASS ]  s=1  r=1 ||  q=x qbar=x
UVM_INFO sr_scoreboard.sv(151) @ 35: uvm_test_top.env_h.scoreboard_h [write_mon OUT ]  s=1  r=0 ||  q=1 qbar=0
UVM_INFO sr_scoreboard.sv(87) @ 35: uvm_test_top.env_h.scoreboard_h [write_drv STIM]  s=0  r=0
UVM_INFO sr_scoreboard.sv(185) @ 35: uvm_test_top.env_h.scoreboard_h [
 [ PASS ]  s=1  r=0 ||  q=1 qbar=0
UVM_INFO sr_scoreboard.sv(151) @ 40: uvm_test_top.env_h.scoreboard_h [write_mon OUT ]  s=0  r=0 ||  q=1 qbar=0
UVM_INFO sr_scoreboard.sv(87) @ 40: uvm_test_top.env_h.scoreboard_h [write_drv STIM]  s=0  r=0
UVM_INFO sr_scoreboard.sv(185) @ 40: uvm_test_top.env_h.scoreboard_h [
 [ PASS ]  s=0  r=0 ||  q=1 qbar=0
UVM_INFO sr_scoreboard.sv(151) @ 45: uvm_test_top.env_h.scoreboard_h [write_mon OUT ]  s=0  r=0 ||  q=1 qbar=0
UVM_INFO sr_scoreboard.sv(87) @ 45: uvm_test_top.env_h.scoreboard_h [write_drv STIM]  s=0  r=1
UVM_INFO sr_scoreboard.sv(185) @ 45: uvm_test_top.env_h.scoreboard_h [
 [ PASS ]  s=0  r=0 ||  q=1 qbar=0
UVM_INFO sr_scoreboard.sv(151) @ 50: uvm_test_top.env_h.scoreboard_h [write_mon OUT ]  s=0  r=1 ||  q=0 qbar=1
UVM_INFO sr_scoreboard.sv(87) @ 50: uvm_test_top.env_h.scoreboard_h [write_drv STIM]  s=0  r=0
UVM_INFO sr_scoreboard.sv(185) @ 50: uvm_test_top.env_h.scoreboard_h [
 [ PASS ]  s=0  r=1 ||  q=0 qbar=1
UVM_INFO sr_scoreboard.sv(151) @ 55: uvm_test_top.env_h.scoreboard_h [write_mon OUT ]  s=0  r=0 ||  q=0 qbar=1
UVM_INFO sr_scoreboard.sv(87) @ 55: uvm_test_top.env_h.scoreboard_h [write_drv STIM]  s=1  r=1
UVM_INFO sr_scoreboard.sv(185) @ 55: uvm_test_top.env_h.scoreboard_h [
 [ PASS ]  s=0  r=0 ||  q=0 qbar=1
UVM_INFO sr_scoreboard.sv(151) @ 60: uvm_test_top.env_h.scoreboard_h [write_mon OUT ]  s=1  r=1 ||  q=x qbar=x
UVM_INFO sr_scoreboard.sv(87) @ 60: uvm_test_top.env_h.scoreboard_h [write_drv STIM]  s=1  r=1
UVM_INFO sr_scoreboard.sv(185) @ 60: uvm_test_top.env_h.scoreboard_h [
 [ PASS ]  s=1  r=1 ||  q=x qbar=x
UVM_INFO sr_scoreboard.sv(151) @ 65: uvm_test_top.env_h.scoreboard_h [write_mon OUT ]  s=1  r=1 ||  q=x qbar=x
UVM_INFO sr_scoreboard.sv(87) @ 65: uvm_test_top.env_h.scoreboard_h [write_drv STIM]  s=1  r=0
UVM_INFO sr_scoreboard.sv(185) @ 65: uvm_test_top.env_h.scoreboard_h [
 [ PASS ]  s=1  r=1 ||  q=x qbar=x
UVM_INFO sr_scoreboard.sv(151) @ 70: uvm_test_top.env_h.scoreboard_h [write_mon OUT ]  s=1  r=0 ||  q=1 qbar=0
UVM_INFO sr_scoreboard.sv(87) @ 70: uvm_test_top.env_h.scoreboard_h [write_drv STIM]  s=0  r=0
UVM_INFO sr_scoreboard.sv(185) @ 70: uvm_test_top.env_h.scoreboard_h [
 [ PASS ]  s=1  r=0 ||  q=1 qbar=0
UVM_INFO sr_scoreboard.sv(151) @ 75: uvm_test_top.env_h.scoreboard_h [write_mon OUT ]  s=0  r=0 ||  q=1 qbar=0
UVM_INFO sr_scoreboard.sv(87) @ 75: uvm_test_top.env_h.scoreboard_h [write_drv STIM]  s=0  r=1
UVM_INFO sr_scoreboard.sv(185) @ 75: uvm_test_top.env_h.scoreboard_h [
 [ PASS ]  s=0  r=0 ||  q=1 qbar=0
UVM_INFO sr_scoreboard.sv(151) @ 80: uvm_test_top.env_h.scoreboard_h [write_mon OUT ]  s=0  r=1 ||  q=0 qbar=1
UVM_INFO sr_scoreboard.sv(87) @ 80: uvm_test_top.env_h.scoreboard_h [write_drv STIM]  s=0  r=0
UVM_INFO sr_scoreboard.sv(185) @ 80: uvm_test_top.env_h.scoreboard_h [
 [ PASS ]  s=0  r=1 ||  q=0 qbar=1
UVM_INFO sr_scoreboard.sv(151) @ 85: uvm_test_top.env_h.scoreboard_h [write_mon OUT ]  s=0  r=0 ||  q=0 qbar=1
UVM_INFO sr_scoreboard.sv(87) @ 85: uvm_test_top.env_h.scoreboard_h [write_drv STIM]  s=0  r=0
UVM_INFO sr_scoreboard.sv(185) @ 85: uvm_test_top.env_h.scoreboard_h [
 [ PASS ]  s=0  r=0 ||  q=0 qbar=1
UVM_INFO sr_scoreboard.sv(151) @ 90: uvm_test_top.env_h.scoreboard_h [write_mon OUT ]  s=0  r=0 ||  q=0 qbar=1
UVM_INFO sr_scoreboard.sv(87) @ 90: uvm_test_top.env_h.scoreboard_h [write_drv STIM]  s=1  r=0
UVM_INFO sr_scoreboard.sv(185) @ 90: uvm_test_top.env_h.scoreboard_h [
 [ PASS ]  s=0  r=0 ||  q=0 qbar=1
UVM_INFO sr_scoreboard.sv(151) @ 95: uvm_test_top.env_h.scoreboard_h [write_mon OUT ]  s=1  r=0 ||  q=1 qbar=0
UVM_INFO sr_scoreboard.sv(87) @ 95: uvm_test_top.env_h.scoreboard_h [write_drv STIM]  s=0  r=0
UVM_INFO sr_scoreboard.sv(185) @ 95: uvm_test_top.env_h.scoreboard_h [
 [ PASS ]  s=1  r=0 ||  q=1 qbar=0
UVM_INFO sr_scoreboard.sv(151) @ 100: uvm_test_top.env_h.scoreboard_h [write_mon OUT ]  s=0  r=0 ||  q=1 qbar=0
UVM_INFO sr_scoreboard.sv(87) @ 100: uvm_test_top.env_h.scoreboard_h [write_drv STIM]  s=0  r=1
UVM_INFO sr_scoreboard.sv(185) @ 100: uvm_test_top.env_h.scoreboard_h [
 [ PASS ]  s=0  r=0 ||  q=1 qbar=0
UVM_INFO sr_scoreboard.sv(151) @ 105: uvm_test_top.env_h.scoreboard_h [write_mon OUT ]  s=0  r=1 ||  q=0 qbar=1
UVM_INFO sr_scoreboard.sv(87) @ 105: uvm_test_top.env_h.scoreboard_h [write_drv STIM]  s=0  r=0
UVM_INFO sr_scoreboard.sv(185) @ 105: uvm_test_top.env_h.scoreboard_h [
 [ PASS ]  s=0  r=1 ||  q=0 qbar=1
UVM_INFO sr_scoreboard.sv(151) @ 110: uvm_test_top.env_h.scoreboard_h [write_mon OUT ]  s=0  r=0 ||  q=0 qbar=1
UVM_INFO sr_scoreboard.sv(87) @ 110: uvm_test_top.env_h.scoreboard_h [write_drv STIM]  s=1  r=0
UVM_INFO sr_scoreboard.sv(185) @ 110: uvm_test_top.env_h.scoreboard_h [
 [ PASS ]  s=0  r=0 ||  q=0 qbar=1
UVM_INFO sr_scoreboard.sv(151) @ 115: uvm_test_top.env_h.scoreboard_h [write_mon OUT ]  s=1  r=0 ||  q=1 qbar=0
UVM_INFO sr_scoreboard.sv(87) @ 115: uvm_test_top.env_h.scoreboard_h [write_drv STIM]  s=0  r=1
UVM_INFO sr_scoreboard.sv(185) @ 115: uvm_test_top.env_h.scoreboard_h [
 [ PASS ]  s=1  r=0 ||  q=1 qbar=0
UVM_INFO sr_scoreboard.sv(151) @ 120: uvm_test_top.env_h.scoreboard_h [write_mon OUT ]  s=0  r=1 ||  q=0 qbar=1
UVM_INFO sr_scoreboard.sv(87) @ 120: uvm_test_top.env_h.scoreboard_h [write_drv STIM]  s=1  r=0
UVM_INFO sr_scoreboard.sv(185) @ 120: uvm_test_top.env_h.scoreboard_h [
 [ PASS ]  s=0  r=1 ||  q=0 qbar=1
UVM_INFO sr_scoreboard.sv(151) @ 125: uvm_test_top.env_h.scoreboard_h [write_mon OUT ]  s=1  r=0 ||  q=1 qbar=0
UVM_INFO sr_scoreboard.sv(87) @ 125: uvm_test_top.env_h.scoreboard_h [write_drv STIM]  s=0  r=0
UVM_INFO sr_scoreboard.sv(185) @ 125: uvm_test_top.env_h.scoreboard_h [
 [ PASS ]  s=1  r=0 ||  q=1 qbar=0
UVM_INFO sr_scoreboard.sv(151) @ 130: uvm_test_top.env_h.scoreboard_h [write_mon OUT ]  s=0  r=0 ||  q=1 qbar=0
UVM_INFO sr_scoreboard.sv(87) @ 130: uvm_test_top.env_h.scoreboard_h [write_drv STIM]  s=0  r=1
UVM_INFO sr_scoreboard.sv(185) @ 130: uvm_test_top.env_h.scoreboard_h [
 [ PASS ]  s=0  r=0 ||  q=1 qbar=0
UVM_INFO sr_scoreboard.sv(151) @ 135: uvm_test_top.env_h.scoreboard_h [write_mon OUT ]  s=0  r=1 ||  q=0 qbar=1
UVM_INFO sr_scoreboard.sv(87) @ 135: uvm_test_top.env_h.scoreboard_h [write_drv STIM]  s=1  r=0
UVM_INFO sr_scoreboard.sv(185) @ 135: uvm_test_top.env_h.scoreboard_h [
 [ PASS ]  s=0  r=1 ||  q=0 qbar=1
UVM_INFO sr_scoreboard.sv(151) @ 140: uvm_test_top.env_h.scoreboard_h [write_mon OUT ]  s=1  r=0 ||  q=1 qbar=0
UVM_INFO sr_scoreboard.sv(87) @ 140: uvm_test_top.env_h.scoreboard_h [write_drv STIM]  s=0  r=0
UVM_INFO sr_scoreboard.sv(185) @ 140: uvm_test_top.env_h.scoreboard_h [
 [ PASS ]  s=1  r=0 ||  q=1 qbar=0
UVM_INFO sr_scoreboard.sv(151) @ 145: uvm_test_top.env_h.scoreboard_h [write_mon OUT ]  s=0  r=0 ||  q=1 qbar=0
UVM_INFO sr_scoreboard.sv(87) @ 145: uvm_test_top.env_h.scoreboard_h [write_drv STIM]  s=0  r=1
UVM_INFO sr_scoreboard.sv(185) @ 145: uvm_test_top.env_h.scoreboard_h [
 [ PASS ]  s=0  r=0 ||  q=1 qbar=0
UVM_INFO sr_scoreboard.sv(151) @ 150: uvm_test_top.env_h.scoreboard_h [write_mon OUT ]  s=0  r=1 ||  q=0 qbar=1
UVM_INFO sr_scoreboard.sv(87) @ 150: uvm_test_top.env_h.scoreboard_h [write_drv STIM]  s=1  r=1
UVM_INFO sr_scoreboard.sv(185) @ 150: uvm_test_top.env_h.scoreboard_h [
 [ PASS ]  s=0  r=1 ||  q=0 qbar=1
UVM_INFO sr_scoreboard.sv(151) @ 155: uvm_test_top.env_h.scoreboard_h [write_mon OUT ]  s=1  r=1 ||  q=x qbar=x
UVM_INFO sr_scoreboard.sv(87) @ 155: uvm_test_top.env_h.scoreboard_h [write_drv STIM]  s=1  r=1
UVM_INFO sr_scoreboard.sv(185) @ 155: uvm_test_top.env_h.scoreboard_h [
 [ PASS ]  s=1  r=1 ||  q=x qbar=x
UVM_INFO sr_scoreboard.sv(151) @ 160: uvm_test_top.env_h.scoreboard_h [write_mon OUT ]  s=1  r=1 ||  q=x qbar=x
UVM_INFO sr_scoreboard.sv(87) @ 160: uvm_test_top.env_h.scoreboard_h [write_drv STIM]  s=0  r=1
UVM_INFO sr_scoreboard.sv(185) @ 160: uvm_test_top.env_h.scoreboard_h [
 [ PASS ]  s=1  r=1 ||  q=x qbar=x
UVM_INFO sr_scoreboard.sv(151) @ 165: uvm_test_top.env_h.scoreboard_h [write_mon OUT ]  s=0  r=1 ||  q=0 qbar=1
UVM_INFO sr_scoreboard.sv(87) @ 165: uvm_test_top.env_h.scoreboard_h [write_drv STIM]  s=0  r=1
UVM_INFO sr_scoreboard.sv(185) @ 165: uvm_test_top.env_h.scoreboard_h [
 [ PASS ]  s=0  r=1 ||  q=0 qbar=1
UVM_INFO sr_scoreboard.sv(151) @ 170: uvm_test_top.env_h.scoreboard_h [write_mon OUT ]  s=0  r=1 ||  q=0 qbar=1
UVM_INFO sr_scoreboard.sv(87) @ 170: uvm_test_top.env_h.scoreboard_h [write_drv STIM]  s=0  r=0
UVM_INFO sr_scoreboard.sv(185) @ 170: uvm_test_top.env_h.scoreboard_h [
 [ PASS ]  s=0  r=1 ||  q=0 qbar=1
UVM_INFO sr_scoreboard.sv(151) @ 175: uvm_test_top.env_h.scoreboard_h [write_mon OUT ]  s=0  r=0 ||  q=0 qbar=1
UVM_INFO sr_scoreboard.sv(87) @ 175: uvm_test_top.env_h.scoreboard_h [write_drv STIM]  s=1  r=1
UVM_INFO sr_scoreboard.sv(185) @ 175: uvm_test_top.env_h.scoreboard_h [
 [ PASS ]  s=0  r=0 ||  q=0 qbar=1
UVM_INFO sr_scoreboard.sv(151) @ 180: uvm_test_top.env_h.scoreboard_h [write_mon OUT ]  s=1  r=1 ||  q=x qbar=x
UVM_INFO sr_scoreboard.sv(87) @ 180: uvm_test_top.env_h.scoreboard_h [write_drv STIM]  s=0  r=1
UVM_INFO sr_scoreboard.sv(185) @ 180: uvm_test_top.env_h.scoreboard_h [
 [ PASS ]  s=1  r=1 ||  q=x qbar=x
UVM_INFO sr_scoreboard.sv(151) @ 185: uvm_test_top.env_h.scoreboard_h [write_mon OUT ]  s=0  r=1 ||  q=0 qbar=1
UVM_INFO sr_scoreboard.sv(87) @ 185: uvm_test_top.env_h.scoreboard_h [write_drv STIM]  s=0  r=1
UVM_INFO sr_scoreboard.sv(185) @ 185: uvm_test_top.env_h.scoreboard_h [
 [ PASS ]  s=0  r=1 ||  q=0 qbar=1
UVM_INFO sr_scoreboard.sv(151) @ 190: uvm_test_top.env_h.scoreboard_h [write_mon OUT ]  s=0  r=1 ||  q=0 qbar=1
UVM_INFO sr_scoreboard.sv(87) @ 190: uvm_test_top.env_h.scoreboard_h [write_drv STIM]  s=0  r=0
UVM_INFO sr_scoreboard.sv(185) @ 190: uvm_test_top.env_h.scoreboard_h [
 [ PASS ]  s=0  r=1 ||  q=0 qbar=1
UVM_INFO sr_scoreboard.sv(151) @ 195: uvm_test_top.env_h.scoreboard_h [write_mon OUT ]  s=0  r=0 ||  q=0 qbar=1
UVM_INFO sr_scoreboard.sv(87) @ 195: uvm_test_top.env_h.scoreboard_h [write_drv STIM]  s=1  r=0
UVM_INFO sr_scoreboard.sv(185) @ 195: uvm_test_top.env_h.scoreboard_h [
 [ PASS ]  s=0  r=0 ||  q=0 qbar=1
UVM_INFO sr_scoreboard.sv(151) @ 200: uvm_test_top.env_h.scoreboard_h [write_mon OUT ]  s=1  r=0 ||  q=1 qbar=0
UVM_INFO sr_scoreboard.sv(87) @ 200: uvm_test_top.env_h.scoreboard_h [write_drv STIM]  s=0  r=1
UVM_INFO sr_scoreboard.sv(185) @ 200: uvm_test_top.env_h.scoreboard_h [
 [ PASS ]  s=1  r=0 ||  q=1 qbar=0
UVM_INFO sr_scoreboard.sv(151) @ 205: uvm_test_top.env_h.scoreboard_h [write_mon OUT ]  s=0  r=1 ||  q=0 qbar=1
UVM_INFO sr_scoreboard.sv(87) @ 205: uvm_test_top.env_h.scoreboard_h [write_drv STIM]  s=0  r=1
UVM_INFO sr_scoreboard.sv(185) @ 205: uvm_test_top.env_h.scoreboard_h [
 [ PASS ]  s=0  r=1 ||  q=0 qbar=1
UVM_INFO sr_scoreboard.sv(151) @ 210: uvm_test_top.env_h.scoreboard_h [write_mon OUT ]  s=0  r=1 ||  q=0 qbar=1
UVM_INFO sr_scoreboard.sv(87) @ 210: uvm_test_top.env_h.scoreboard_h [write_drv STIM]  s=1  r=0
UVM_INFO sr_scoreboard.sv(185) @ 210: uvm_test_top.env_h.scoreboard_h [
 [ PASS ]  s=0  r=1 ||  q=0 qbar=1
UVM_INFO sr_scoreboard.sv(151) @ 215: uvm_test_top.env_h.scoreboard_h [write_mon OUT ]  s=1  r=0 ||  q=1 qbar=0
UVM_INFO sr_scoreboard.sv(87) @ 215: uvm_test_top.env_h.scoreboard_h [write_drv STIM]  s=1  r=1
UVM_INFO sr_scoreboard.sv(185) @ 215: uvm_test_top.env_h.scoreboard_h [
 [ PASS ]  s=1  r=0 ||  q=1 qbar=0
UVM_INFO sr_scoreboard.sv(151) @ 220: uvm_test_top.env_h.scoreboard_h [write_mon OUT ]  s=1  r=1 ||  q=x qbar=x
UVM_INFO sr_scoreboard.sv(87) @ 220: uvm_test_top.env_h.scoreboard_h [write_drv STIM]  s=1  r=1
UVM_INFO sr_scoreboard.sv(185) @ 220: uvm_test_top.env_h.scoreboard_h [
 [ PASS ]  s=1  r=1 ||  q=x qbar=x
UVM_INFO sr_scoreboard.sv(151) @ 225: uvm_test_top.env_h.scoreboard_h [write_mon OUT ]  s=1  r=1 ||  q=x qbar=x
UVM_INFO sr_scoreboard.sv(87) @ 225: uvm_test_top.env_h.scoreboard_h [write_drv STIM]  s=0  r=1
UVM_INFO sr_scoreboard.sv(185) @ 225: uvm_test_top.env_h.scoreboard_h [
 [ PASS ]  s=1  r=1 ||  q=x qbar=x
UVM_INFO sr_scoreboard.sv(151) @ 230: uvm_test_top.env_h.scoreboard_h [write_mon OUT ]  s=0  r=1 ||  q=0 qbar=1
UVM_INFO sr_scoreboard.sv(87) @ 230: uvm_test_top.env_h.scoreboard_h [write_drv STIM]  s=1  r=1
UVM_INFO sr_scoreboard.sv(185) @ 230: uvm_test_top.env_h.scoreboard_h [
 [ PASS ]  s=0  r=1 ||  q=0 qbar=1
UVM_INFO sr_scoreboard.sv(151) @ 235: uvm_test_top.env_h.scoreboard_h [write_mon OUT ]  s=1  r=1 ||  q=x qbar=x
UVM_INFO sr_scoreboard.sv(87) @ 235: uvm_test_top.env_h.scoreboard_h [write_drv STIM]  s=0  r=1
UVM_INFO sr_scoreboard.sv(185) @ 235: uvm_test_top.env_h.scoreboard_h [
 [ PASS ]  s=1  r=1 ||  q=x qbar=x
UVM_INFO sr_scoreboard.sv(151) @ 240: uvm_test_top.env_h.scoreboard_h [write_mon OUT ]  s=0  r=1 ||  q=0 qbar=1
UVM_INFO sr_scoreboard.sv(87) @ 240: uvm_test_top.env_h.scoreboard_h [write_drv STIM]  s=1  r=1
UVM_INFO sr_scoreboard.sv(185) @ 240: uvm_test_top.env_h.scoreboard_h [
 [ PASS ]  s=0  r=1 ||  q=0 qbar=1
UVM_INFO sr_scoreboard.sv(151) @ 245: uvm_test_top.env_h.scoreboard_h [write_mon OUT ]  s=1  r=1 ||  q=x qbar=x
UVM_INFO sr_scoreboard.sv(87) @ 245: uvm_test_top.env_h.scoreboard_h [write_drv STIM]  s=0  r=1
UVM_INFO sr_scoreboard.sv(185) @ 245: uvm_test_top.env_h.scoreboard_h [
 [ PASS ]  s=1  r=1 ||  q=x qbar=x
UVM_INFO sr_scoreboard.sv(151) @ 250: uvm_test_top.env_h.scoreboard_h [write_mon OUT ]  s=0  r=1 ||  q=0 qbar=1
UVM_INFO sr_scoreboard.sv(87) @ 250: uvm_test_top.env_h.scoreboard_h [write_drv STIM]  s=0  r=1
UVM_INFO sr_scoreboard.sv(185) @ 250: uvm_test_top.env_h.scoreboard_h [
 [ PASS ]  s=0  r=1 ||  q=0 qbar=1
UVM_INFO sr_scoreboard.sv(151) @ 255: uvm_test_top.env_h.scoreboard_h [write_mon OUT ]  s=0  r=1 ||  q=0 qbar=1
UVM_INFO sr_scoreboard.sv(87) @ 255: uvm_test_top.env_h.scoreboard_h [write_drv STIM]  s=1  r=0
UVM_INFO sr_scoreboard.sv(185) @ 255: uvm_test_top.env_h.scoreboard_h [
 [ PASS ]  s=0  r=1 ||  q=0 qbar=1
UVM_INFO sr_scoreboard.sv(151) @ 260: uvm_test_top.env_h.scoreboard_h [write_mon OUT ]  s=1  r=0 ||  q=1 qbar=0
UVM_INFO sr_scoreboard.sv(87) @ 260: uvm_test_top.env_h.scoreboard_h [write_drv STIM]  s=0  r=0
UVM_INFO sr_scoreboard.sv(185) @ 260: uvm_test_top.env_h.scoreboard_h [
 [ PASS ]  s=1  r=0 ||  q=1 qbar=0
UVM_INFO sr_scoreboard.sv(151) @ 265: uvm_test_top.env_h.scoreboard_h [write_mon OUT ]  s=0  r=0 ||  q=1 qbar=0
UVM_INFO sr_scoreboard.sv(87) @ 265: uvm_test_top.env_h.scoreboard_h [write_drv STIM]  s=1  r=0
UVM_INFO sr_scoreboard.sv(185) @ 265: uvm_test_top.env_h.scoreboard_h [
 [ PASS ]  s=0  r=0 ||  q=1 qbar=0
UVM_INFO sr_scoreboard.sv(151) @ 270: uvm_test_top.env_h.scoreboard_h [write_mon OUT ]  s=1  r=0 ||  q=1 qbar=0
UVM_INFO sr_scoreboard.sv(87) @ 270: uvm_test_top.env_h.scoreboard_h [write_drv STIM]  s=0  r=0
UVM_INFO sr_scoreboard.sv(185) @ 270: uvm_test_top.env_h.scoreboard_h [
 [ PASS ]  s=1  r=0 ||  q=1 qbar=0
UVM_INFO sr_scoreboard.sv(151) @ 275: uvm_test_top.env_h.scoreboard_h [write_mon OUT ]  s=0  r=0 ||  q=1 qbar=0
UVM_INFO sr_scoreboard.sv(87) @ 275: uvm_test_top.env_h.scoreboard_h [write_drv STIM]  s=1  r=0
UVM_INFO sr_scoreboard.sv(185) @ 275: uvm_test_top.env_h.scoreboard_h [
 [ PASS ]  s=0  r=0 ||  q=1 qbar=0
UVM_INFO sr_scoreboard.sv(151) @ 280: uvm_test_top.env_h.scoreboard_h [write_mon OUT ]  s=1  r=0 ||  q=1 qbar=0
UVM_INFO sr_scoreboard.sv(87) @ 280: uvm_test_top.env_h.scoreboard_h [write_drv STIM]  s=0  r=0
UVM_INFO sr_scoreboard.sv(185) @ 280: uvm_test_top.env_h.scoreboard_h [
 [ PASS ]  s=1  r=0 ||  q=1 qbar=0
UVM_INFO sr_scoreboard.sv(151) @ 285: uvm_test_top.env_h.scoreboard_h [write_mon OUT ]  s=0  r=0 ||  q=1 qbar=0
UVM_INFO sr_scoreboard.sv(87) @ 285: uvm_test_top.env_h.scoreboard_h [write_drv STIM]  s=1  r=0
UVM_INFO sr_scoreboard.sv(185) @ 285: uvm_test_top.env_h.scoreboard_h [
 [ PASS ]  s=0  r=0 ||  q=1 qbar=0
UVM_INFO sr_scoreboard.sv(151) @ 290: uvm_test_top.env_h.scoreboard_h [write_mon OUT ]  s=1  r=0 ||  q=1 qbar=0
UVM_INFO sr_scoreboard.sv(87) @ 290: uvm_test_top.env_h.scoreboard_h [write_drv STIM]  s=0  r=0
UVM_INFO sr_scoreboard.sv(185) @ 290: uvm_test_top.env_h.scoreboard_h [
 [ PASS ]  s=1  r=0 ||  q=1 qbar=0
UVM_INFO sr_scoreboard.sv(151) @ 295: uvm_test_top.env_h.scoreboard_h [write_mon OUT ]  s=0  r=0 ||  q=1 qbar=0
UVM_INFO sr_scoreboard.sv(87) @ 295: uvm_test_top.env_h.scoreboard_h [write_drv STIM]  s=1  r=0
UVM_INFO sr_scoreboard.sv(185) @ 295: uvm_test_top.env_h.scoreboard_h [
 [ PASS ]  s=0  r=0 ||  q=1 qbar=0
UVM_INFO sr_scoreboard.sv(151) @ 300: uvm_test_top.env_h.scoreboard_h [write_mon OUT ]  s=1  r=0 ||  q=1 qbar=0
UVM_INFO sr_scoreboard.sv(87) @ 300: uvm_test_top.env_h.scoreboard_h [write_drv STIM]  s=0  r=0
UVM_INFO sr_scoreboard.sv(185) @ 300: uvm_test_top.env_h.scoreboard_h [
 [ PASS ]  s=1  r=0 ||  q=1 qbar=0
UVM_INFO sr_scoreboard.sv(151) @ 305: uvm_test_top.env_h.scoreboard_h [write_mon OUT ]  s=0  r=0 ||  q=1 qbar=0
UVM_INFO sr_scoreboard.sv(87) @ 305: uvm_test_top.env_h.scoreboard_h [write_drv STIM]  s=1  r=0
UVM_INFO sr_scoreboard.sv(185) @ 305: uvm_test_top.env_h.scoreboard_h [
 [ PASS ]  s=0  r=0 ||  q=1 qbar=0
UVM_INFO sr_scoreboard.sv(151) @ 310: uvm_test_top.env_h.scoreboard_h [write_mon OUT ]  s=1  r=0 ||  q=1 qbar=0
UVM_INFO sr_scoreboard.sv(87) @ 310: uvm_test_top.env_h.scoreboard_h [write_drv STIM]  s=0  r=0
UVM_INFO sr_scoreboard.sv(185) @ 310: uvm_test_top.env_h.scoreboard_h [
 [ PASS ]  s=1  r=0 ||  q=1 qbar=0
UVM_INFO sr_scoreboard.sv(151) @ 315: uvm_test_top.env_h.scoreboard_h [write_mon OUT ]  s=0  r=0 ||  q=1 qbar=0
UVM_INFO sr_scoreboard.sv(87) @ 315: uvm_test_top.env_h.scoreboard_h [write_drv STIM]  s=1  r=0
UVM_INFO sr_scoreboard.sv(185) @ 315: uvm_test_top.env_h.scoreboard_h [
 [ PASS ]  s=0  r=0 ||  q=1 qbar=0
UVM_INFO sr_scoreboard.sv(151) @ 320: uvm_test_top.env_h.scoreboard_h [write_mon OUT ]  s=1  r=0 ||  q=1 qbar=0
UVM_INFO sr_scoreboard.sv(87) @ 320: uvm_test_top.env_h.scoreboard_h [write_drv STIM]  s=0  r=0
UVM_INFO sr_scoreboard.sv(185) @ 320: uvm_test_top.env_h.scoreboard_h [
 [ PASS ]  s=1  r=0 ||  q=1 qbar=0
UVM_INFO sr_scoreboard.sv(151) @ 325: uvm_test_top.env_h.scoreboard_h [write_mon OUT ]  s=0  r=0 ||  q=1 qbar=0
UVM_INFO sr_scoreboard.sv(87) @ 325: uvm_test_top.env_h.scoreboard_h [write_drv STIM]  s=1  r=0
UVM_INFO sr_scoreboard.sv(185) @ 325: uvm_test_top.env_h.scoreboard_h [
 [ PASS ]  s=0  r=0 ||  q=1 qbar=0
UVM_INFO sr_scoreboard.sv(151) @ 330: uvm_test_top.env_h.scoreboard_h [write_mon OUT ]  s=1  r=0 ||  q=1 qbar=0
UVM_INFO sr_scoreboard.sv(87) @ 330: uvm_test_top.env_h.scoreboard_h [write_drv STIM]  s=0  r=0
UVM_INFO sr_scoreboard.sv(185) @ 330: uvm_test_top.env_h.scoreboard_h [
 [ PASS ]  s=1  r=0 ||  q=1 qbar=0
UVM_INFO sr_scoreboard.sv(151) @ 335: uvm_test_top.env_h.scoreboard_h [write_mon OUT ]  s=0  r=0 ||  q=1 qbar=0
UVM_INFO sr_scoreboard.sv(87) @ 335: uvm_test_top.env_h.scoreboard_h [write_drv STIM]  s=1  r=0
UVM_INFO sr_scoreboard.sv(185) @ 335: uvm_test_top.env_h.scoreboard_h [
 [ PASS ]  s=0  r=0 ||  q=1 qbar=0
UVM_INFO sr_scoreboard.sv(151) @ 340: uvm_test_top.env_h.scoreboard_h [write_mon OUT ]  s=1  r=0 ||  q=1 qbar=0
UVM_INFO sr_scoreboard.sv(87) @ 340: uvm_test_top.env_h.scoreboard_h [write_drv STIM]  s=0  r=0
UVM_INFO sr_scoreboard.sv(185) @ 340: uvm_test_top.env_h.scoreboard_h [
 [ PASS ]  s=1  r=0 ||  q=1 qbar=0
UVM_INFO sr_scoreboard.sv(151) @ 345: uvm_test_top.env_h.scoreboard_h [write_mon OUT ]  s=0  r=0 ||  q=1 qbar=0
UVM_INFO sr_scoreboard.sv(87) @ 345: uvm_test_top.env_h.scoreboard_h [write_drv STIM]  s=1  r=0
UVM_INFO sr_scoreboard.sv(185) @ 345: uvm_test_top.env_h.scoreboard_h [
 [ PASS ]  s=0  r=0 ||  q=1 qbar=0
UVM_INFO sr_scoreboard.sv(151) @ 350: uvm_test_top.env_h.scoreboard_h [write_mon OUT ]  s=1  r=0 ||  q=1 qbar=0
